{
    "type": "object",
    "properties": {
        "dsgaussiannoisegen": {
            "type": "object",
            "properties": {
                "receiver":{
                    "type": "object"
                },
                "pol_coupler":{
                    "type": "array"
                },
                "source":{
                    "type": "array"
                },
                "rfi":{
                    "type": "array"
                },
                "fir_filter_gen_out_rcv_file_name": {"type": "string"},
                "lstv_playback_length": {"type": "integer"},
                "utc_start_time": {"type": "integer"}
            }
        },
        "dslstvbandpassfilter": {
            "type": "object"
        },
        "dslstvgen": {
            "type": "object"
        },
        "dslstvplayback": {
            "type": "object"
        },
        "dsdishpacketsgen": {
            "type": "object"
        },
        "dslstvtonegenerator": {
            "type": "object"
        },
        "dspolarizationcoupler": {
            "type": "object"
        }
    }
}