[
	{
		"name":"ds-lstv-gen",
		"src":"ds-lstv-gen/build-cross/bin/ds-lstv-gen",
		"dest":"mnt/talondx-config/dslstvgen/bin/dslstvgen"
	},
	{
                "name":"ds-hps-master",
                "src":"ds-hps-master/build-cross/bin/dshpsmaster",
                "dest":"mnt/talondx-config/dshpsmaster/bin/dshpsmaster"
        },
	{
                "name":"ds-dish-packet-gen",
                "src":"ds-dish-packet-gen/build-cross/bin/dsdishpacketgen",
                "dest":"mnt/talondx-config/dsdishpacketgen/bin/dsdishpacketgen"
        },
	{
                "name":"ds-gaussian-noise-gen",
                "src":"ds-gaussian-noise-gen/build-cross/bin/dsgaussiannoisegen",
                "dest":"mnt/talondx-config/dsgaussiannoisegen/bin/dsgaussiannoisegen"
        },
	{
                "name":"ds-lstv-bandpass-filter",
                "src":"ds-lstv-bandpass-filter/build-cross/bin/dslstvbandpassfilter",
                "dest":"mnt/talondx-config/dslstvbandpassfilter/bin/dslstvbandpassfilter"
        },
	{
                "name":"ds-lstv-playback",
                "src":"ds-lstv-playback/build-cross/bin/dslstvplayback",
                "dest":"mnt/talondx-config/dslstvplayback/bin/dslstvplayback"
        },
	{
                "name":"ds-lstv-tone-generator",
                "src":"ds-lstv-tone-generator/build-cross/bin/dslstvtonegenerator",
                "dest":"mnt/talondx-config/dslstvtonegenerator/bin/dslstvtonegenerator"
        },
	{
                "name":"ds-polarization-coupler",
                "src":"ds-polarization-coupler/build-cross/bin/dspolarizationcoupler",
                "dest":"mnt/talondx-config/dspolarizationcoupler/bin/dspolarizationcoupler"
        },
	{
                "name":"ds-circuit-switch",
                "src":"ds-circuit-switch/build-cross/bin/dscircuitswitch",
                "dest":"mnt/talondx-config/dscircuitswitch/bin/dscircuitswitch"
        },
	{
                "name":"ds-vcc",
                "src":"ds-vcc/build-cross/bin/ds-vcc",
                "dest":"mnt/talondx-config/dsvcc/bin/dsvcc"
        },
	{
                "name":"ds-fine-channelizer",
                "src":"ds-fine-channelizer/build-cross/bin/dsfinechannelizer",
                "dest":"mnt/talondx-config/dsfinechannelizer/bin/dsfinechannelizer"
        },
	{
                "name":"ds-dct",
                "src":"ds-dct/build-cross/bin/dsdct",
                "dest":"mnt/talondx-config/dsdct/bin/dsdct"
        },
	{
                "name":"ds-talondx-rdma",
                "src":"ds-talondx-rdma/build-cross/bin/dstalondxrdma",
                "dest":"mnt/talondx-config/dstalondxrdma/bin/dstalondxrdma"
        },
	{
                "name":"ds-rdma-rx",
                "src":"ds-rdma-rx/build/bin/dsrdmarx",
                "dest":"mnt/talondx-config/dsrdmarx/bin/dsrdmarx"
        }

]
