{
	"gen_time": "20200925_1739",
	"test_id": "T2",
	"receiver": {
		"select": 1,
		"noise_info_polX": {
			"seed_ln": 16948,
			"seed_cos": 17193,
			"noise_std": 200,
			"noise_mean": 0
		},
		"noise_info_polY": {
			"seed_ln": 16196,
			"seed_cos": 43988,
			"noise_std": 400,
			"noise_mean": 0
		}
	},
	"source": [
		{
			"select": 0,
			"noise_info_polX": {
				"seed_ln": 33,
				"seed_cos": 44,
				"noise_std": 200,
				"noise_mean": -20
			},
			"noise_info_polY": {
				"seed_ln": 300,
				"seed_cos": 400,
				"noise_std": 210,
				"noise_mean": 0
			}
		},
		{
			"select": 0,
			"noise_info_polX": {
				"seed_ln": 0,
				"seed_cos": 0,
				"noise_std": 0,
				"noise_mean": 0
			},
			"noise_info_polY": {
				"seed_ln": 0,
				"seed_cos": 0,
				"noise_std": 0,
				"noise_mean": 0
			}
		}
	],
	"rfi": [
		{
			"select": 1,
			"tone_info_polX": {
				"magnitude": 256,
				"phase_inc": 1610612736
			},
			"tone_info_polY": {
				"magnitude": 1250,
				"phase_inc": 1879048192
			}
		},
		{
			"select": 0,
			"tone_info_polX": {
				"magnitude": 0,
				"phase_inc": 0
			},
			"tone_info_polY": {
				"magnitude": 0,
				"phase_inc": 0
			}
		}
	],
	"lstv_playback_length": 89478485,
	"fir_filter_file": "T2_BD2_fir_filter_gen_out_params.json"
}
