[
    "iopll_locked_fault",
    "fs_iopll_locked_fault",
    "comms_iopll_locked_fault",
    "system_clk_fault",
    "emif_bl_fault",
    "emif_br_fault",
    "emif_tr_fault",
    "e100g_0_pll_fault",
    "e100g_1_pll_fault",
    "slim_pll_fault",
    "non_zero",
    "base_clock_frequency",
    "emif_bl_clock_frequency",
    "emif_br_clock_frequency",
    "emif_tr_clock_frequency",
    "iopll_locked",
    "fs_iopll_locked",
    "comms_iopll_locked",
    "iopll_locked_trn",
    "fs_iopll_locked_trn",
    "comms_iopll_locked_trn",
    "emif_pll_locked",
    "emif_local_reset_done",
    "emif_local_cal_success",
    "emif_local_cal_fail",
    "emif_amm_ready",
    "emif_pll_locked_trn",
    "emif_local_reset_done_trn",
    "emif_local_cal_success_trn",
    "emif_local_cal_fail_trn",
    "emif_amm_ready_trn",
    "e100g_main_pll_locked",
    "e100g_main_pll_cal_busy",
    "e100g_buffer_pll_locked",
    "e100g_buffer_pll_cal_busy",
    "e100g_main_pll_locked_trn",
    "e100g_main_pll_cal_busy_trn",
    "e100g_buffer_pll_locked_trn",
    "e100g_buffer_pll_cal_busy_trn",
    "slim_is_present_lsw",
    "slim_is_present_msw",
    "slim_pll_locked_status_lsw",
    "slim_pll_locked_status_msw",
    "slim_pll_locked_status_trn_lsw",
    "slim_pll_locked_status_trn_msw",
    "slim_pll_cal_busy_status_lsw",
    "slim_pll_cal_busy_status_msw",
    "slim_pll_cal_busy_status_trn_lsw",
    "slim_pll_cal_busy_status_trn_msw"
]
