{
    "sub_id": 0,
    "fsp_id": 4,
    "function_mode": "CORR",
    "subarray_receptor_ids": [["SKA100", 4]],
    "corr_receptor_ids": [["SKA100", 4]],
    "frequency_slice_id": 1,
    "zoom_factor": 1,
    "zoom_window_tuning": 450000,
    "integration_factor": 10,
    "channel_offset": 14880,
    "channel_averaging_map": [
        [0, 1],
        [744, 1],
        [1488, 1],
        [2232, 1],
        [2976, 1],
        [3720, 1],
        [4464, 1],
        [5208, 1],
        [5952, 1],
        [6696, 1],
        [7440, 1],
        [8184, 1],
        [8928, 1],
        [9672, 1],
        [10416, 1],
        [11160, 1],
        [11904, 1],
        [12648, 1],
        [13392, 1],
        [14136, 1]
    ],
    "output_link_map": [
        [0, 4],
        [744, 8],
        [1488, 12],
        [2232, 16],
        [2976, 20],
        [3720, 24],
        [4464, 28],
        [5206, 32],
        [5952, 36],
        [6696, 40],
        [7440, 44],
        [8184, 48],
        [8928, 52],
        [9672, 56],
        [10416, 60],
        [11160, 64],
        [11904, 68],
        [12648, 72],
        [13392, 76],
        [14136, 80]
    ],
    "output_host": [[0, "VIS_IP_ADDRESS"]],
    "output_port": [[0, 14000, 1]],
    "config_id": "band:5a, fsp1, 744 channels average factor 8",
    "frequency_band": "1",
    "band_5_tuning": [5.85, 7.25],
    "frequency_band_offset_stream_1": 0,
    "frequency_band_offset_stream_2": 0,
    "fs_sample_rates": [{"receptor_id": 1, "fs_sample_rate": 220}]
}

